EESchema Schematic File Version 4
EELAYER 30 0
EELAYER END
$Descr A4 11693 8268
encoding utf-8
Sheet 1 1
Title "esp32-fritzmon DevKit/perfboard"
Date "2022-03-24"
Rev "1"
Comp ""
Comment1 ""
Comment2 ""
Comment3 ""
Comment4 ""
$EndDescr
$Comp
L power:VCC #PWR0101
U 1 1 6217FC04
P 5350 4700
F 0 "#PWR0101" H 5350 4550 50  0001 C CNN
F 1 "VCC" H 5365 4873 50  0000 C CNN
F 2 "" H 5350 4700 50  0001 C CNN
F 3 "" H 5350 4700 50  0001 C CNN
	1    5350 4700
	1    0    0    -1  
$EndComp
Wire Wire Line
	5350 4700 5500 4700
$Comp
L Device:LED_Dual_ACA D3
U 1 1 623A2340
P 4400 4750
F 0 "D3" H 4400 5175 50  0000 C CNN
F 1 "LED_Dual_ACA" H 4400 5084 50  0000 C CNN
F 2 "" H 4400 4750 50  0001 C CNN
F 3 "~" H 4400 4750 50  0001 C CNN
	1    4400 4750
	1    0    0    -1  
$EndComp
$Comp
L Device:LED_Dual_ACA D2
U 1 1 623A3418
P 4400 4050
F 0 "D2" H 4400 4475 50  0000 C CNN
F 1 "LED_Dual_ACA" H 4400 4384 50  0000 C CNN
F 2 "" H 4400 4050 50  0001 C CNN
F 3 "~" H 4400 4050 50  0001 C CNN
	1    4400 4050
	1    0    0    -1  
$EndComp
$Comp
L Device:LED_Dual_ACA D4
U 1 1 623A3C35
P 4400 5450
F 0 "D4" H 4400 5875 50  0000 C CNN
F 1 "LED_Dual_ACA" H 4400 5784 50  0000 C CNN
F 2 "" H 4400 5450 50  0001 C CNN
F 3 "~" H 4400 5450 50  0001 C CNN
	1    4400 5450
	1    0    0    -1  
$EndComp
$Comp
L Device:R R3
U 1 1 623B4785
P 3750 4050
F 0 "R3" V 3543 4050 50  0000 C CNN
F 1 "100" V 3634 4050 50  0000 C CNN
F 2 "" V 3680 4050 50  0001 C CNN
F 3 "~" H 3750 4050 50  0001 C CNN
	1    3750 4050
	0    1    1    0   
$EndComp
$Comp
L Device:R R4
U 1 1 623B573A
P 3750 4750
F 0 "R4" V 3543 4750 50  0000 C CNN
F 1 "100" V 3634 4750 50  0000 C CNN
F 2 "" V 3680 4750 50  0001 C CNN
F 3 "~" H 3750 4750 50  0001 C CNN
	1    3750 4750
	0    1    1    0   
$EndComp
$Comp
L Device:R R5
U 1 1 623B5E04
P 3800 5450
F 0 "R5" V 3593 5450 50  0000 C CNN
F 1 "100" V 3684 5450 50  0000 C CNN
F 2 "" V 3730 5450 50  0001 C CNN
F 3 "~" H 3800 5450 50  0001 C CNN
	1    3800 5450
	0    1    1    0   
$EndComp
Wire Wire Line
	3900 4050 4100 4050
Wire Wire Line
	3900 4750 4100 4750
Wire Wire Line
	3950 5450 4100 5450
$Comp
L Device:LED D1
U 1 1 623BAAC5
P 4350 3400
F 0 "D1" H 4343 3617 50  0000 C CNN
F 1 "LED" H 4343 3526 50  0000 C CNN
F 2 "" H 4350 3400 50  0001 C CNN
F 3 "~" H 4350 3400 50  0001 C CNN
	1    4350 3400
	1    0    0    -1  
$EndComp
$Comp
L Switch:SW_Push SW1
U 1 1 623CD451
P 4800 2400
F 0 "SW1" H 4800 2685 50  0000 C CNN
F 1 "SW_Push" H 4800 2594 50  0000 C CNN
F 2 "" H 4800 2600 50  0001 C CNN
F 3 "~" H 4800 2600 50  0001 C CNN
	1    4800 2400
	1    0    0    -1  
$EndComp
$Comp
L power:VCC #PWR0103
U 1 1 623FD911
P 4350 2250
F 0 "#PWR0103" H 4350 2100 50  0001 C CNN
F 1 "VCC" H 4365 2423 50  0000 C CNN
F 2 "" H 4350 2250 50  0001 C CNN
F 3 "" H 4350 2250 50  0001 C CNN
	1    4350 2250
	1    0    0    -1  
$EndComp
Wire Wire Line
	4350 2250 4350 2400
Wire Wire Line
	4350 2400 4600 2400
$Comp
L Device:R R2
U 1 1 623FF483
P 3750 3400
F 0 "R2" V 3543 3400 50  0000 C CNN
F 1 "47" V 3634 3400 50  0000 C CNN
F 2 "" V 3680 3400 50  0001 C CNN
F 3 "~" H 3750 3400 50  0001 C CNN
	1    3750 3400
	0    1    1    0   
$EndComp
Wire Wire Line
	4200 3400 3900 3400
$Comp
L Espressif:ESP32-C3-MINI-1 U1
U 1 1 623CC0C9
P 6750 3650
F 0 "U1" H 6775 5065 50  0000 C CNN
F 1 "ESP32-C3-MINI-1" H 6775 4974 50  0000 C CNN
F 2 "Espressif:ESP32-C3-MINI-1" H 6750 2350 50  0001 C CNN
F 3 "https://www.espressif.com/sites/default/files/documentation/esp32-c3-mini-1_datasheet_en.pdf" H 4300 2350 50  0001 C CNN
	1    6750 3650
	1    0    0    -1  
$EndComp
Wire Wire Line
	7850 4300 8000 4300
Wire Wire Line
	8000 4300 8000 4400
Wire Wire Line
	7850 4400 8000 4400
Connection ~ 8000 4400
Wire Wire Line
	8000 4400 8000 4500
Wire Wire Line
	7850 4500 8000 4500
Connection ~ 8000 4500
Wire Wire Line
	8000 4500 8000 4600
Wire Wire Line
	7850 4600 8000 4600
Connection ~ 8000 4600
Wire Wire Line
	8000 4600 8000 4700
Wire Wire Line
	7850 4700 8000 4700
Connection ~ 8000 4700
Wire Wire Line
	5700 3300 5450 3300
Wire Wire Line
	5450 3300 5450 2400
Wire Wire Line
	5450 2400 5200 2400
$Comp
L Device:R R1
U 1 1 6240B0FB
P 4950 2750
F 0 "R1" V 4743 2750 50  0000 C CNN
F 1 "100K" V 4834 2750 50  0000 C CNN
F 2 "" V 4880 2750 50  0001 C CNN
F 3 "~" H 4950 2750 50  0001 C CNN
	1    4950 2750
	0    1    1    0   
$EndComp
Wire Wire Line
	5100 2750 5200 2750
Wire Wire Line
	5200 2750 5200 2400
Connection ~ 5200 2400
Wire Wire Line
	5200 2400 5000 2400
$Comp
L power:GND #PWR0104
U 1 1 62416479
P 3300 5850
F 0 "#PWR0104" H 3300 5600 50  0001 C CNN
F 1 "GND" H 3305 5677 50  0000 C CNN
F 2 "" H 3300 5850 50  0001 C CNN
F 3 "" H 3300 5850 50  0001 C CNN
	1    3300 5850
	1    0    0    -1  
$EndComp
Wire Wire Line
	4800 2750 3300 2750
Wire Wire Line
	3300 2750 3300 3400
Wire Wire Line
	3600 3400 3300 3400
Connection ~ 3300 3400
Wire Wire Line
	3300 3400 3300 4050
Wire Wire Line
	3600 4050 3300 4050
Connection ~ 3300 4050
Wire Wire Line
	3300 4050 3300 4750
Wire Wire Line
	3600 4750 3300 4750
Connection ~ 3300 4750
Wire Wire Line
	3650 5450 3300 5450
Wire Wire Line
	3300 4750 3300 5450
Connection ~ 3300 5450
Wire Wire Line
	3300 5450 3300 5850
Wire Wire Line
	5700 3400 4500 3400
Wire Wire Line
	5700 3500 4750 3500
Wire Wire Line
	4750 3500 4750 3950
Wire Wire Line
	4750 3950 4700 3950
Wire Wire Line
	5700 3600 4850 3600
Wire Wire Line
	4850 3600 4850 4150
Wire Wire Line
	4850 4150 4700 4150
Wire Wire Line
	5700 3700 4950 3700
Wire Wire Line
	4950 3700 4950 4650
Wire Wire Line
	4950 4650 4700 4650
Wire Wire Line
	5700 3800 5050 3800
Wire Wire Line
	5050 3800 5050 4850
Wire Wire Line
	5050 4850 4700 4850
Wire Wire Line
	5700 4100 5150 4100
Wire Wire Line
	5150 4100 5150 5350
Wire Wire Line
	5150 5350 4700 5350
Text Label 5200 3100 2    50   ~ 0
IPDOWN
Wire Wire Line
	5700 3100 5200 3100
Text Label 4900 5550 0    50   ~ 0
IPDOWN
Wire Wire Line
	4700 5550 4900 5550
NoConn ~ 5700 3000
NoConn ~ 5700 3200
NoConn ~ 5700 3900
NoConn ~ 5700 4000
NoConn ~ 5700 4200
NoConn ~ 5700 4400
NoConn ~ 5700 4500
$Comp
L power:VCC #PWR0105
U 1 1 62429786
P 5600 2650
F 0 "#PWR0105" H 5600 2500 50  0001 C CNN
F 1 "VCC" H 5615 2823 50  0000 C CNN
F 2 "" H 5600 2650 50  0001 C CNN
F 3 "" H 5600 2650 50  0001 C CNN
	1    5600 2650
	1    0    0    -1  
$EndComp
Wire Wire Line
	5700 2800 5600 2800
Wire Wire Line
	5600 2800 5600 2650
$Comp
L power:GND #PWR0102
U 1 1 6242AFB5
P 8000 4850
F 0 "#PWR0102" H 8000 4600 50  0001 C CNN
F 1 "GND" H 8005 4677 50  0000 C CNN
F 2 "" H 8000 4850 50  0001 C CNN
F 3 "" H 8000 4850 50  0001 C CNN
	1    8000 4850
	1    0    0    -1  
$EndComp
Wire Wire Line
	8000 4700 8000 4800
$Comp
L power:PWR_FLAG #FLG0101
U 1 1 624306B4
P 8350 4900
F 0 "#FLG0101" H 8350 4975 50  0001 C CNN
F 1 "PWR_FLAG" H 8350 5073 50  0000 C CNN
F 2 "" H 8350 4900 50  0001 C CNN
F 3 "~" H 8350 4900 50  0001 C CNN
	1    8350 4900
	-1   0    0    1   
$EndComp
Wire Wire Line
	8000 4800 8350 4800
Wire Wire Line
	8350 4800 8350 4900
Connection ~ 8000 4800
Wire Wire Line
	8000 4800 8000 4850
$Comp
L power:PWR_FLAG #FLG0102
U 1 1 624360B2
P 5500 4700
F 0 "#FLG0102" H 5500 4775 50  0001 C CNN
F 1 "PWR_FLAG" H 5500 4873 50  0000 C CNN
F 2 "" H 5500 4700 50  0001 C CNN
F 3 "~" H 5500 4700 50  0001 C CNN
	1    5500 4700
	-1   0    0    1   
$EndComp
Connection ~ 5500 4700
Wire Wire Line
	5500 4700 5700 4700
$EndSCHEMATC
