EESchema Schematic File Version 4
EELAYER 30 0
EELAYER END
$Descr A4 11693 8268
encoding utf-8
Sheet 1 1
Title "esp32-fritzmon PCB"
Date "2022-04-15"
Rev "1"
Comp ""
Comment1 ""
Comment2 ""
Comment3 ""
Comment4 ""
$EndDescr
$Comp
L Device:LED D1
U 1 1 623BAAC5
P 5850 5300
F 0 "D1" H 5843 5517 50  0000 C CNN
F 1 "LED" H 5843 5426 50  0000 C CNN
F 2 "LED_THT:LED_D3.0mm_Horizontal_O6.35mm_Z6.0mm" H 5850 5300 50  0001 C CNN
F 3 "~" H 5850 5300 50  0001 C CNN
	1    5850 5300
	1    0    0    -1  
$EndComp
$Comp
L Switch:SW_Push SW2
U 1 1 623CD451
P 6750 2300
F 0 "SW2" H 6750 2585 50  0000 C CNN
F 1 "SW_Push" H 6750 2494 50  0000 C CNN
F 2 "Button_Switch_THT:SW_Tactile_SPST_Angled_PTS645Vx58-2LFS" H 6750 2500 50  0001 C CNN
F 3 "~" H 6750 2500 50  0001 C CNN
	1    6750 2300
	1    0    0    -1  
$EndComp
Wire Wire Line
	6300 2150 6300 2300
Wire Wire Line
	6300 2300 6550 2300
Wire Wire Line
	9950 4500 9950 4600
Connection ~ 9950 4600
Wire Wire Line
	7650 3000 7400 3000
$Comp
L Device:R R1
U 1 1 6240B0FB
P 7000 2550
F 0 "R1" H 7200 2500 50  0000 C CNN
F 1 "50K" H 7200 2600 50  0000 C CNN
F 2 "Resistor_SMD:R_1206_3216Metric_Pad1.30x1.75mm_HandSolder" V 6930 2550 50  0001 C CNN
F 3 "~" H 7000 2550 50  0001 C CNN
	1    7000 2550
	-1   0    0    1   
$EndComp
Text Label 6950 4250 0    50   ~ 0
IPDOWN
NoConn ~ 7650 2900
Wire Wire Line
	7650 2700 7550 2700
Wire Wire Line
	9800 4600 9950 4600
Wire Wire Line
	9800 4500 9950 4500
Wire Wire Line
	7400 3000 7400 2300
Text Label 10000 3300 0    50   ~ 0
IPDOWN
Wire Wire Line
	10000 3200 9800 3200
Text Label 10000 3200 0    50   ~ 0
IPGOOD
Text Label 6950 4100 0    50   ~ 0
IPGOOD
$Comp
L Power_Supervisor:MCP101-300D U2
U 1 1 625DFF1D
P 4050 3050
F 0 "U2" H 3820 3096 50  0000 R CNN
F 1 "MCP101" H 3820 3005 50  0000 R CNN
F 2 "Package_TO_SOT_SMD:SOT-23" H 4350 3150 50  0001 C CNN
F 3 "http://www.ti.com/lit/ds/symlink/lm809.pdf" H 4350 3150 50  0001 C CNN
	1    4050 3050
	1    0    0    -1  
$EndComp
$Comp
L Device:Battery_Cell BT1
U 1 1 625E059D
P 1100 3100
F 0 "BT1" H 1218 3196 50  0000 L CNN
F 1 "Battery_Cell" H 1218 3105 50  0000 L CNN
F 2 "" V 1100 3160 50  0001 C CNN
F 3 "~" V 1100 3160 50  0001 C CNN
	1    1100 3100
	1    0    0    -1  
$EndComp
Text Label 7600 2700 2    50   ~ 0
EN
Wire Wire Line
	4500 3050 4350 3050
Text Label 4500 3050 0    50   ~ 0
EN
Wire Wire Line
	9950 4600 9950 4750
$Comp
L power:+BATT #PWR0101
U 1 1 625E70D1
P 1100 2550
F 0 "#PWR0101" H 1100 2400 50  0001 C CNN
F 1 "+BATT" H 1115 2723 50  0000 C CNN
F 2 "" H 1100 2550 50  0001 C CNN
F 3 "" H 1100 2550 50  0001 C CNN
	1    1100 2550
	1    0    0    -1  
$EndComp
$Comp
L power:-BATT #PWR0102
U 1 1 625E7762
P 1100 3500
F 0 "#PWR0102" H 1100 3350 50  0001 C CNN
F 1 "-BATT" H 1115 3673 50  0000 C CNN
F 2 "" H 1100 3500 50  0001 C CNN
F 3 "" H 1100 3500 50  0001 C CNN
	1    1100 3500
	1    0    0    1   
$EndComp
$Comp
L power:-BATT #PWR0103
U 1 1 625E9418
P 5250 5650
F 0 "#PWR0103" H 5250 5500 50  0001 C CNN
F 1 "-BATT" H 5265 5823 50  0000 C CNN
F 2 "" H 5250 5650 50  0001 C CNN
F 3 "" H 5250 5650 50  0001 C CNN
	1    5250 5650
	1    0    0    1   
$EndComp
$Comp
L power:+BATT #PWR0104
U 1 1 625F438A
P 7000 4850
F 0 "#PWR0104" H 7000 4700 50  0001 C CNN
F 1 "+BATT" H 7015 5023 50  0000 C CNN
F 2 "" H 7000 4850 50  0001 C CNN
F 3 "" H 7000 4850 50  0001 C CNN
	1    7000 4850
	1    0    0    -1  
$EndComp
$Comp
L power:-BATT #PWR0105
U 1 1 625F549D
P 9950 4750
F 0 "#PWR0105" H 9950 4600 50  0001 C CNN
F 1 "-BATT" H 9965 4923 50  0000 C CNN
F 2 "" H 9950 4750 50  0001 C CNN
F 3 "" H 9950 4750 50  0001 C CNN
	1    9950 4750
	1    0    0    1   
$EndComp
$Comp
L power:-BATT #PWR0107
U 1 1 625F6F09
P 3950 3650
F 0 "#PWR0107" H 3950 3500 50  0001 C CNN
F 1 "-BATT" H 3965 3823 50  0000 C CNN
F 2 "" H 3950 3650 50  0001 C CNN
F 3 "" H 3950 3650 50  0001 C CNN
	1    3950 3650
	1    0    0    1   
$EndComp
$Comp
L power:+BATT #PWR0108
U 1 1 625FC704
P 6300 2150
F 0 "#PWR0108" H 6300 2000 50  0001 C CNN
F 1 "+BATT" H 6315 2323 50  0000 C CNN
F 2 "" H 6300 2150 50  0001 C CNN
F 3 "" H 6300 2150 50  0001 C CNN
	1    6300 2150
	1    0    0    -1  
$EndComp
$Comp
L Switch:SW_SPST SW1
U 1 1 62604EB3
P 1850 2650
F 0 "SW1" H 1850 2885 50  0000 C CNN
F 1 "SW_SPST" H 1850 2794 50  0000 C CNN
F 2 "" H 1850 2650 50  0001 C CNN
F 3 "~" H 1850 2650 50  0001 C CNN
	1    1850 2650
	1    0    0    -1  
$EndComp
Wire Wire Line
	7550 4000 7650 4000
Text Label 7550 4000 2    50   ~ 0
BOOTLO
Text Label 3850 5450 2    50   ~ 0
BOOTLO
$Comp
L power:-BATT #PWR0110
U 1 1 6263655E
P 4550 5900
F 0 "#PWR0110" H 4550 5750 50  0001 C CNN
F 1 "-BATT" H 4565 6073 50  0000 C CNN
F 2 "" H 4550 5900 50  0001 C CNN
F 3 "" H 4550 5900 50  0001 C CNN
	1    4550 5900
	1    0    0    1   
$EndComp
$Comp
L power:PWR_FLAG #FLG0101
U 1 1 6263B51A
P 800 3350
F 0 "#FLG0101" H 800 3425 50  0001 C CNN
F 1 "PWR_FLAG" H 800 3523 50  0000 C CNN
F 2 "" H 800 3350 50  0001 C CNN
F 3 "~" H 800 3350 50  0001 C CNN
	1    800  3350
	0    -1   1    0   
$EndComp
$Comp
L power:PWR_FLAG #FLG0102
U 1 1 6263EE56
P 800 2750
F 0 "#FLG0102" H 800 2825 50  0001 C CNN
F 1 "PWR_FLAG" H 800 2923 50  0000 C CNN
F 2 "" H 800 2750 50  0001 C CNN
F 3 "~" H 800 2750 50  0001 C CNN
	1    800  2750
	0    -1   -1   0   
$EndComp
$Comp
L Connector:Conn_01x04_Male J1
U 1 1 626445AE
P 8300 5350
F 0 "J1" H 8400 5600 50  0000 C CNN
F 1 "UART" H 8400 5050 50  0000 C CNN
F 2 "Connector_PinHeader_2.54mm:PinHeader_1x04_P2.54mm_Vertical" H 8300 5350 50  0001 C CNN
F 3 "~" H 8300 5350 50  0001 C CNN
	1    8300 5350
	1    0    0    -1  
$EndComp
Wire Wire Line
	9800 2900 10000 2900
Wire Wire Line
	9800 3000 10000 3000
Text Label 10000 2900 0    50   ~ 0
RX
Text Label 10000 3000 0    50   ~ 0
TX
Wire Wire Line
	8500 5250 8700 5250
Wire Wire Line
	8500 5350 8700 5350
Wire Wire Line
	8500 5450 8700 5450
Wire Wire Line
	8500 5550 8700 5550
$Comp
L power:+BATT #PWR0111
U 1 1 62650835
P 8700 5250
F 0 "#PWR0111" H 8700 5100 50  0001 C CNN
F 1 "+BATT" H 8715 5423 50  0000 C CNN
F 2 "" H 8700 5250 50  0001 C CNN
F 3 "" H 8700 5250 50  0001 C CNN
	1    8700 5250
	1    0    0    -1  
$EndComp
$Comp
L power:-BATT #PWR0112
U 1 1 62650D76
P 8700 5550
F 0 "#PWR0112" H 8700 5400 50  0001 C CNN
F 1 "-BATT" H 8715 5723 50  0000 C CNN
F 2 "" H 8700 5550 50  0001 C CNN
F 3 "" H 8700 5550 50  0001 C CNN
	1    8700 5550
	1    0    0    1   
$EndComp
Text Label 8700 5350 0    50   ~ 0
RX
Text Label 8700 5450 0    50   ~ 0
TX
$Comp
L Device:LED_Dual_ACA D2
U 1 1 626819BA
P 5850 3200
F 0 "D2" H 5850 3625 50  0000 C CNN
F 1 "LED_Dual_CACA" H 5850 3534 50  0000 C CNN
F 2 "" H 5880 3200 50  0001 C CNN
F 3 "~" H 5880 3200 50  0001 C CNN
	1    5850 3200
	1    0    0    -1  
$EndComp
$Comp
L Device:LED_Dual_ACA D3
U 1 1 6268574F
P 5850 3950
F 0 "D3" H 5850 4375 50  0000 C CNN
F 1 "LED_Dual_CACA" H 5850 4284 50  0000 C CNN
F 2 "" H 5880 3950 50  0001 C CNN
F 3 "~" H 5880 3950 50  0001 C CNN
	1    5850 3950
	1    0    0    -1  
$EndComp
Wire Wire Line
	1100 3200 1100 3350
Wire Wire Line
	1100 2550 1100 2650
Wire Wire Line
	800  3350 1100 3350
Connection ~ 1100 3350
Wire Wire Line
	1100 3350 1100 3500
Wire Wire Line
	800  2750 1100 2750
Connection ~ 1100 2750
Wire Wire Line
	1100 2750 1100 2900
Wire Wire Line
	1650 2650 1100 2650
Connection ~ 1100 2650
Wire Wire Line
	1100 2650 1100 2750
$Comp
L Transistor_FET:IRF7404 Q1
U 1 1 626B0635
P 2550 2750
F 0 "Q1" V 2900 2700 50  0000 L CNN
F 1 "IRF7404" V 2800 2600 50  0000 L CNN
F 2 "Package_SO:SOIC-8_3.9x4.9mm_P1.27mm" H 2750 2675 50  0001 L CIN
F 3 "http://www.infineon.com/dgdl/irf7404.pdf?fileId=5546d462533600a4015355fa2b5b1b9e" V 2550 2750 50  0001 L CNN
	1    2550 2750
	0    -1   -1   0   
$EndComp
Wire Wire Line
	2050 2650 2350 2650
$Comp
L Device:R R3
U 1 1 640EC05E
P 2550 3350
F 0 "R3" H 2620 3396 50  0000 L CNN
F 1 "50K" H 2620 3305 50  0000 L CNN
F 2 "Resistor_SMD:R_1206_3216Metric_Pad1.30x1.75mm_HandSolder" V 2480 3350 50  0001 C CNN
F 3 "~" H 2550 3350 50  0001 C CNN
	1    2550 3350
	1    0    0    -1  
$EndComp
$Comp
L power:-BATT #PWR0106
U 1 1 640ECFFB
P 2550 3650
F 0 "#PWR0106" H 2550 3500 50  0001 C CNN
F 1 "-BATT" H 2565 3823 50  0000 C CNN
F 2 "" H 2550 3650 50  0001 C CNN
F 3 "" H 2550 3650 50  0001 C CNN
	1    2550 3650
	-1   0    0    1   
$EndComp
Wire Wire Line
	2550 2950 2550 3150
Wire Wire Line
	2550 3500 2550 3650
$Comp
L Device:D_Zener D5
U 1 1 640F2C56
P 3100 2900
F 0 "D5" V 3054 2980 50  0000 L CNN
F 1 "2v7" V 3145 2980 50  0000 L CNN
F 2 "Diode_SMD:D_1206_3216Metric" H 3100 2900 50  0001 C CNN
F 3 "~" H 3100 2900 50  0001 C CNN
	1    3100 2900
	0    1    1    0   
$EndComp
Wire Wire Line
	3100 3050 3100 3150
Wire Wire Line
	3100 3150 2550 3150
Connection ~ 2550 3150
Wire Wire Line
	2550 3150 2550 3200
Wire Wire Line
	2750 2650 3100 2650
Wire Wire Line
	3100 2750 3100 2650
Connection ~ 3100 2650
Wire Wire Line
	3100 2650 3950 2650
Wire Wire Line
	3950 3450 3950 3650
$Comp
L power:+BATT #PWR0113
U 1 1 6410EC45
P 4600 2650
F 0 "#PWR0113" H 4600 2500 50  0001 C CNN
F 1 "+BATT" H 4615 2823 50  0000 C CNN
F 2 "" H 4600 2650 50  0001 C CNN
F 3 "" H 4600 2650 50  0001 C CNN
	1    4600 2650
	1    0    0    -1  
$EndComp
Wire Wire Line
	3950 2650 4600 2650
Connection ~ 3950 2650
$Comp
L Device:R R2
U 1 1 64123A8D
P 4250 4400
F 0 "R2" V 4043 4400 50  0000 C CNN
F 1 "50K" V 4134 4400 50  0000 C CNN
F 2 "Resistor_SMD:R_1206_3216Metric_Pad1.30x1.75mm_HandSolder" V 4180 4400 50  0001 C CNN
F 3 "~" H 4250 4400 50  0001 C CNN
	1    4250 4400
	0    1    1    0   
$EndComp
Text Label 3850 4400 2    50   ~ 0
STRAP
Wire Wire Line
	3850 4400 4100 4400
$Comp
L power:+BATT #PWR0109
U 1 1 64131928
P 4550 4250
F 0 "#PWR0109" H 4550 4100 50  0001 C CNN
F 1 "+BATT" H 4565 4423 50  0000 C CNN
F 2 "" H 4550 4250 50  0001 C CNN
F 3 "" H 4550 4250 50  0001 C CNN
	1    4550 4250
	1    0    0    -1  
$EndComp
Wire Wire Line
	4550 4250 4550 4400
Wire Wire Line
	4550 4400 4400 4400
Text Label 7550 3900 2    50   ~ 0
BOOTHI
Wire Wire Line
	7550 3900 7650 3900
$Comp
L Espressif:ESP32-C3-WROOM-02 U1
U 1 1 625880DD
P 8700 3550
F 0 "U1" H 8725 4965 50  0000 C CNN
F 1 "ESP32-C3-WROOM-02" H 8725 4874 50  0000 C CNN
F 2 "Espressif:ESP32-C3-WROOM-02" H 8700 2250 50  0001 C CNN
F 3 "https://www.espressif.com/sites/default/files/documentation/esp32-c3-wroom-02_datasheet_en.pdf" H 6250 2250 50  0001 C CNN
	1    8700 3550
	1    0    0    -1  
$EndComp
Text Label 7400 3100 2    50   ~ 0
STRAP
Wire Wire Line
	7650 3100 7400 3100
Wire Wire Line
	9800 3300 10000 3300
$Comp
L Device:R R4
U 1 1 64155C19
P 4550 5650
F 0 "R4" H 4620 5696 50  0000 L CNN
F 1 "1K" H 4620 5605 50  0000 L CNN
F 2 "Resistor_SMD:R_1206_3216Metric_Pad1.30x1.75mm_HandSolder" V 4480 5650 50  0001 C CNN
F 3 "~" H 4550 5650 50  0001 C CNN
	1    4550 5650
	1    0    0    -1  
$EndComp
Wire Wire Line
	4550 5800 4550 5900
NoConn ~ 7650 3200
Wire Wire Line
	6950 2300 7000 2300
Wire Wire Line
	7000 2400 7000 2300
Connection ~ 7000 2300
Wire Wire Line
	7000 2300 7400 2300
$Comp
L power:-BATT #PWR0114
U 1 1 6416F526
P 7000 2800
F 0 "#PWR0114" H 7000 2650 50  0001 C CNN
F 1 "-BATT" H 6800 2850 50  0000 C CNN
F 2 "" H 7000 2800 50  0001 C CNN
F 3 "" H 7000 2800 50  0001 C CNN
	1    7000 2800
	1    0    0    1   
$EndComp
Wire Wire Line
	7000 2800 7000 2700
$Comp
L Device:LED_Dual_ACA D4
U 1 1 62689650
P 5850 4700
F 0 "D4" H 5850 5125 50  0000 C CNN
F 1 "LED_Dual_CACA" H 5850 5034 50  0000 C CNN
F 2 "" H 5880 4700 50  0001 C CNN
F 3 "~" H 5880 4700 50  0001 C CNN
	1    5850 4700
	1    0    0    -1  
$EndComp
$Comp
L Device:R_Pack04 RN1
U 1 1 626914F0
P 6650 3600
F 0 "RN1" V 6233 3600 50  0000 C CNN
F 1 "68" V 6324 3600 50  0000 C CNN
F 2 "Resistor_SMD:R_Array_Convex_4x1206" V 6925 3600 50  0001 C CNN
F 3 "~" H 6650 3600 50  0001 C CNN
	1    6650 3600
	0    1    1    0   
$EndComp
$Comp
L Device:R_Pack04 RN2
U 1 1 6419160E
P 6650 4400
F 0 "RN2" V 6233 4400 50  0000 C CNN
F 1 "68" V 6324 4400 50  0000 C CNN
F 2 "Resistor_SMD:R_Array_Convex_4x1206" V 6925 4400 50  0001 C CNN
F 3 "~" H 6650 4400 50  0001 C CNN
	1    6650 4400
	0    1    1    0   
$EndComp
Wire Wire Line
	7650 3300 6850 3300
Wire Wire Line
	6850 3300 6850 3400
Wire Wire Line
	7650 3400 6950 3400
Wire Wire Line
	6950 3400 6950 3500
Wire Wire Line
	6950 3500 6850 3500
Wire Wire Line
	7650 3700 6950 3700
Wire Wire Line
	6950 3700 6950 3600
Wire Wire Line
	6950 3600 6850 3600
Wire Wire Line
	7650 3800 6850 3800
Wire Wire Line
	6850 3800 6850 3700
Wire Wire Line
	6950 4100 6850 4100
Wire Wire Line
	6850 4100 6850 4200
Wire Wire Line
	6950 4250 6950 4300
Wire Wire Line
	6950 4300 6850 4300
Wire Wire Line
	7650 4100 7350 4100
Wire Wire Line
	7350 4100 7350 4400
Wire Wire Line
	7350 4400 6850 4400
NoConn ~ 6850 4500
NoConn ~ 6450 4500
Wire Wire Line
	6450 3400 6450 3100
Wire Wire Line
	6450 3100 6150 3100
Wire Wire Line
	6450 3500 6350 3500
Wire Wire Line
	6350 3500 6350 3300
Wire Wire Line
	6350 3300 6150 3300
Wire Wire Line
	6450 3600 6200 3600
Wire Wire Line
	6200 3600 6200 3850
Wire Wire Line
	6200 3850 6150 3850
Wire Wire Line
	6450 3700 6250 3700
Wire Wire Line
	6250 3700 6250 4050
Wire Wire Line
	6250 4050 6150 4050
Wire Wire Line
	6450 4200 6200 4200
Wire Wire Line
	6200 4200 6200 4600
Wire Wire Line
	6200 4600 6150 4600
Wire Wire Line
	6450 4300 6250 4300
Wire Wire Line
	6250 4300 6250 4800
Wire Wire Line
	6250 4800 6150 4800
Wire Wire Line
	6450 4400 6350 4400
Wire Wire Line
	6350 4400 6350 5300
Wire Wire Line
	6350 5300 6000 5300
Wire Wire Line
	5250 5650 5250 5300
Wire Wire Line
	5250 3200 5550 3200
Wire Wire Line
	5550 3950 5250 3950
Connection ~ 5250 3950
Wire Wire Line
	5250 3950 5250 3200
Wire Wire Line
	5550 4700 5250 4700
Connection ~ 5250 4700
Wire Wire Line
	5250 4700 5250 3950
Wire Wire Line
	5700 5300 5250 5300
Connection ~ 5250 5300
Wire Wire Line
	5250 5300 5250 4700
$Comp
L Device:C C1
U 1 1 641E5FE2
P 7050 5350
F 0 "C1" H 7165 5396 50  0000 L CNN
F 1 "10u" H 7165 5305 50  0000 L CNN
F 2 "Capacitor_SMD:C_0805_2012Metric_Pad1.18x1.45mm_HandSolder" H 7088 5200 50  0001 C CNN
F 3 "~" H 7050 5350 50  0001 C CNN
	1    7050 5350
	1    0    0    -1  
$EndComp
$Comp
L Device:C C2
U 1 1 641E64CA
P 7450 5350
F 0 "C2" H 7565 5396 50  0000 L CNN
F 1 "0u1" H 7565 5305 50  0000 L CNN
F 2 "Capacitor_SMD:C_0805_2012Metric_Pad1.18x1.45mm_HandSolder" H 7488 5200 50  0001 C CNN
F 3 "~" H 7450 5350 50  0001 C CNN
	1    7450 5350
	1    0    0    -1  
$EndComp
Wire Wire Line
	7650 4600 7550 4600
Wire Wire Line
	7550 4600 7550 5000
Wire Wire Line
	7550 5000 7450 5000
Wire Wire Line
	7000 5000 7000 4850
Wire Wire Line
	7450 5200 7450 5000
Connection ~ 7450 5000
Wire Wire Line
	7450 5000 7050 5000
Wire Wire Line
	7050 5200 7050 5000
Connection ~ 7050 5000
Wire Wire Line
	7050 5000 7000 5000
$Comp
L Switch:SW_Push_Dual SW3
U 1 1 6420D8B1
P 4250 5250
F 0 "SW3" H 4250 5535 50  0000 C CNN
F 1 "SW_Push_Dual" H 4250 5444 50  0000 C CNN
F 2 "Button_Switch_SMD:SW_MEC_5GSH9" H 4250 5450 50  0001 C CNN
F 3 "~" H 4250 5450 50  0001 C CNN
	1    4250 5250
	1    0    0    -1  
$EndComp
Wire Wire Line
	4450 5450 4550 5450
Wire Wire Line
	4550 5450 4550 5500
Wire Wire Line
	4050 5450 3850 5450
Wire Wire Line
	7050 5500 7050 5650
$Comp
L power:-BATT #PWR0115
U 1 1 64201BBD
P 7050 5700
F 0 "#PWR0115" H 7050 5550 50  0001 C CNN
F 1 "-BATT" H 7065 5873 50  0000 C CNN
F 2 "" H 7050 5700 50  0001 C CNN
F 3 "" H 7050 5700 50  0001 C CNN
	1    7050 5700
	-1   0    0    1   
$EndComp
Wire Wire Line
	7450 5500 7450 5650
Wire Wire Line
	7450 5650 7050 5650
Connection ~ 7050 5650
Wire Wire Line
	7050 5650 7050 5700
$Comp
L Device:R R6
U 1 1 64231940
P 4700 5000
F 0 "R6" H 4770 5046 50  0000 L CNN
F 1 "10K" H 4770 4955 50  0000 L CNN
F 2 "Resistor_SMD:R_1206_3216Metric_Pad1.30x1.75mm_HandSolder" V 4630 5000 50  0001 C CNN
F 3 "~" H 4700 5000 50  0001 C CNN
	1    4700 5000
	1    0    0    -1  
$EndComp
$Comp
L power:+BATT #PWR0116
U 1 1 642322C7
P 4700 4700
F 0 "#PWR0116" H 4700 4550 50  0001 C CNN
F 1 "+BATT" H 4715 4873 50  0000 C CNN
F 2 "" H 4700 4700 50  0001 C CNN
F 3 "" H 4700 4700 50  0001 C CNN
	1    4700 4700
	1    0    0    -1  
$EndComp
Wire Wire Line
	4450 5250 4700 5250
Wire Wire Line
	4700 5250 4700 5150
Wire Wire Line
	4700 4850 4700 4700
$Comp
L Device:R R5
U 1 1 6423AC00
P 3250 5500
F 0 "R5" H 3320 5546 50  0000 L CNN
F 1 "50K" H 3320 5455 50  0000 L CNN
F 2 "Resistor_SMD:R_1206_3216Metric_Pad1.30x1.75mm_HandSolder" V 3180 5500 50  0001 C CNN
F 3 "~" H 3250 5500 50  0001 C CNN
	1    3250 5500
	1    0    0    -1  
$EndComp
$Comp
L power:-BATT #PWR0117
U 1 1 6423B476
P 3250 5850
F 0 "#PWR0117" H 3250 5700 50  0001 C CNN
F 1 "-BATT" H 3265 6023 50  0000 C CNN
F 2 "" H 3250 5850 50  0001 C CNN
F 3 "" H 3250 5850 50  0001 C CNN
	1    3250 5850
	-1   0    0    1   
$EndComp
Wire Wire Line
	3250 5650 3250 5850
Wire Wire Line
	4050 5250 3250 5250
Wire Wire Line
	3250 5250 3250 5350
Text Label 3050 5250 2    50   ~ 0
BOOTHI
Wire Wire Line
	3050 5250 3250 5250
Connection ~ 3250 5250
$EndSCHEMATC
